<?xml version="1.0" encoding="utf-8"?>
<!-- Generator: Adobe Illustrator 16.0.0, SVG Export Plug-In . SVG Version: 6.00 Build 0)  -->
<!DOCTYPE svg PUBLIC "-//W3C//DTD SVG 1.1//EN" "http://www.w3.org/Graphics/SVG/1.1/DTD/svg11.dtd">
<svg version="1.1" id="Layer_1" xmlns="http://www.w3.org/2000/svg" xmlns:xlink="http://www.w3.org/1999/xlink" x="0px" y="0px"
	 width="195px" height="195px" viewBox="0 0 195 195" enable-background="new 0 0 195 195" xml:space="preserve">
<g>
	<path fill-rule="evenodd" clip-rule="evenodd" d="M89.284,138.182c-4.998-0.897-8.728-1.58-12.463-2.236
		c-11.082-1.945-20.798-6.853-29.651-13.64c-7.41-5.682-8.699-11.087-4.154-17.419c4.041-5.63,10.494-6.252,17.71-1.338
		c18.724,12.75,38.842,14.974,59.985,7.672c5.42-1.872,10.336-5.264,15.384-8.133c4.752-2.7,9.486-4.306,14.49-0.813
		c6.703,4.678,6.801,13.145,0.129,18.672c-10.225,8.47-21.865,13.866-35.076,15.737c-2.422,0.344-4.82,0.843-8.259,1.453
		c1.711,2.057,2.724,3.479,3.938,4.701c10.568,10.642,21.222,21.2,31.746,31.886c4.017,4.079,4.758,8.784,2.527,13.26
		c-2.435,4.887-7.099,7.793-12.203,6.602c-2.712-0.633-5.438-2.448-7.498-4.419c-8.185-7.833-16.225-15.826-24.07-23.998
		c-2.796-2.913-4.542-2.635-7.202,0.116c-7.758,8.023-15.777,15.796-23.681,23.679c-6.169,6.153-12.275,6.71-17.428,1.561
		c-5.256-5.253-4.959-11.992,1.031-18.063c10.184-10.317,20.482-20.523,30.715-30.794C86.389,141.529,87.408,140.278,89.284,138.182
		z"/>
	<path fill-rule="evenodd" clip-rule="evenodd" d="M146.039,50.993c-0.045,27.485-20.518,47.905-48.008,47.884
		c-27.554-0.021-47.998-20.712-47.942-48.521c0.054-26.718,21.512-47.939,48.33-48.008C122.66,2.285,147.299,23.143,146.039,50.993z
		 M97.93,75.428c13.69,0.045,25.126-11.061,25.165-24.437c0.038-13.15-11.632-24.971-24.835-25.157
		c-12.888-0.182-25.125,11.874-25.21,24.834C72.962,64.064,84.336,75.384,97.93,75.428z"/>
</g>
</svg>
